Binar Food
=========================================
Menu		Harga	Jumlah	Subtotal
=========================================
Mie Goreng		Rp 15000.0	3 pcs		Rp 45000.0
Es Teh		Rp 5000.0	7 pcs		Rp 35000.0
=========================================
Total Harga:				Rp 80000.0